P1/Mux2Por1WhenElse/simulation/qsim/Mux2Por1WhenElse.msim.vcd
$comment
	File created using the following command:
		vcd file Mux2Por1WhenElse.msim.vcd -direction
$end
$date
	Tue Sep 13 20:16:11 2022
$end
$version
	ModelSim Version 10.5b
$end
$timescale
	1ps
$end

$scope module mux2por1whenelse_vhd_vec_tst $end
$var wire 1 ! A [1] $end
$var wire 1 " A [0] $end
$var wire 1 # B [1] $end
$var wire 1 $ B [0] $end
$var wire 1 % SAIDA [1] $end
$var wire 1 & SAIDA [0] $end
$var wire 1 ' SELETOR $end

$scope module i1 $end
$var wire 1 ( gnd $end
$var wire 1 ) vcc $end
$var wire 1 * unknown $end
$var wire 1 + devoe $end
$var wire 1 , devclrn $end
$var wire 1 - devpor $end
$var wire 1 . ww_devoe $end
$var wire 1 / ww_devclrn $end
$var wire 1 0 ww_devpor $end
$var wire 1 1 ww_A [1] $end
$var wire 1 2 ww_A [0] $end
$var wire 1 3 ww_B [1] $end
$var wire 1 4 ww_B [0] $end
$var wire 1 5 ww_SELETOR $end
$var wire 1 6 ww_SAIDA [1] $end
$var wire 1 7 ww_SAIDA [0] $end
$var wire 1 8 \SAIDA[0]~output_o\ $end
$var wire 1 9 \SAIDA[1]~output_o\ $end
$var wire 1 : \A[0]~input_o\ $end
$var wire 1 ; \B[0]~input_o\ $end
$var wire 1 < \SELETOR~input_o\ $end
$var wire 1 = \SAIDA~0_combout\ $end
$var wire 1 > \A[1]~input_o\ $end
$var wire 1 ? \B[1]~input_o\ $end
$var wire 1 @ \SAIDA~1_combout\ $end
$upscope $end
$upscope $end
$enddefinitions $end
#0
$dumpvars
0'
0(
1)
x*
1+
1,
1-
1.
1/
10
05
18
19
0:
1;
0<
1=
0>
1?
1@
0!
0"
1#
1$
01
02
13
14
16
17
1%
1&
$end
#50000
1"
0#
0$
1'
12
04
03
15
1<
0?
0;
1:
0@
09
06
0%
#100000
0"
1$
0'
1!
02
11
14
05
0<
1;
1>
0:
#150000
1"
0$
1'
1#
12
04
13
15
1<
1?
0;
1:
1@
19
16
1%
#200000
0"
1$
0'
0!
02
01
14
05
0<
1;
0>
0:
#250000
1"
0$
1'
0#
12
04
03
15
1<
0?
0;
1:
0@
09
06
0%
#300000
0"
1$
0'
1!
02
11
14
05
0<
1;
1>
0:
#350000
1"
0$
1'
1#
12
04
13
15
1<
1?
0;
1:
1@
19
16
1%
#400000
0"
1$
0'
0!
02
01
14
05
0<
1;
0>
0:
#450000
1"
0$
1'
0#
12
04
03
15
1<
0?
0;
1:
0@
09
06
0%
#500000
0"
1$
0'
1!
02
11
14
05
0<
1;
1>
0:
#550000
1"
0$
1'
1#
12
04
13
15
1<
1?
0;
1:
1@
19
16
1%
#600000
0"
1$
0'
0!
02
01
14
05
0<
1;
0>
0:
#650000
1"
0$
1'
0#
12
04
03
15
1<
0?
0;
1:
0@
09
06
0%
#700000
0"
1$
0'
1!
02
11
14
05
0<
1;
1>
0:
#750000
1"
0$
1'
1#
12
04
13
15
1<
1?
0;
1:
1@
19
16
1%
#800000
0"
1$
0'
0!
02
01
14
05
0<
1;
0>
0:
#850000
1"
0$
1'
0#
12
04
03
15
1<
0?
0;
1:
0@
09
06
0%
#900000
0"
1$
0'
1!
02
11
14
05
0<
1;
1>
0:
#950000
1"
0$
1'
1#
12
04
13
15
1<
1?
0;
1:
1@
19
16
1%
