P2/FlipflopLatchComResetGuarded/simulation/qsim/FlipflopLatchComResetGuarded.msim.vcd
$comment
	File created using the following command:
		vcd file FlipflopLatchComResetGuarded.msim.vcd -direction
$end
$date
	Tue Sep 27 20:12:08 2022
$end
$version
	ModelSim Version 10.5b
$end
$timescale
	1ps
$end

$scope module flipfloplatchcomresetguarded_vhd_vec_tst $end
$var wire 1 ! clk $end
$var wire 1 " d $end
$var wire 1 # q $end
$var wire 1 $ q_guarded $end
$var wire 1 % rst $end

$scope module i1 $end
$var wire 1 & gnd $end
$var wire 1 ' vcc $end
$var wire 1 ( unknown $end
$var wire 1 ) devoe $end
$var wire 1 * devclrn $end
$var wire 1 + devpor $end
$var wire 1 , ww_devoe $end
$var wire 1 - ww_devclrn $end
$var wire 1 . ww_devpor $end
$var wire 1 / ww_clk $end
$var wire 1 0 ww_d $end
$var wire 1 1 ww_rst $end
$var wire 1 2 ww_q_guarded $end
$var wire 1 3 ww_q $end
$var wire 1 4 \q_guarded~output_o\ $end
$var wire 1 5 \q~output_o\ $end
$var wire 1 6 \d~input_o\ $end
$var wire 1 7 \rst~input_o\ $end
$var wire 1 8 \q_guarded~0_combout\ $end
$var wire 1 9 \clk~input_o\ $end
$var wire 1 : \q_guarded$latch~combout\ $end
$var wire 1 ; \ALT_INV_q_guarded~0_combout\ $end
$var wire 1 < \ALT_INV_q_guarded$latch~combout\ $end
$var wire 1 = \ALT_INV_d~input_o\ $end
$var wire 1 > \ALT_INV_rst~input_o\ $end
$var wire 1 ? \ALT_INV_clk~input_o\ $end
$upscope $end
$upscope $end
$enddefinitions $end
#0
$dumpvars
0!
0"
0#
x$
0%
0&
1'
x(
1)
1*
1+
1,
1-
1.
0/
00
01
x2
03
x4
05
06
07
08
09
x:
1;
x<
1=
1>
1?
$end
#45000
1!
1/
19
0?
0:
1<
04
02
0$
#90000
0!
0/
09
1?
#100000
1"
10
16
0=
18
0;
15
13
1#
#135000
1!
1/
19
0?
1:
0<
14
12
1$
#180000
0!
0/
09
1?
#200000
0"
00
06
1=
08
1;
05
03
0#
#225000
1!
1/
19
0?
0:
1<
04
02
0$
#270000
0!
0/
09
1?
#300000
1"
10
16
0=
18
0;
15
13
1#
#315000
1!
1/
19
0?
1:
0<
14
12
1$
#360000
0!
0/
09
1?
#400000
0"
1%
00
11
17
06
1=
0>
08
1;
05
03
0#
#405000
1!
1/
19
0?
0:
1<
04
02
0$
#450000
0!
0/
09
1?
#495000
1!
1/
19
0?
#500000
1"
10
16
0=
15
13
1#
#540000
0!
0/
09
1?
#585000
1!
1/
19
0?
#600000
0"
00
06
1=
05
03
0#
#630000
0!
0/
09
1?
#675000
1!
1/
19
0?
#700000
1"
10
16
0=
15
13
1#
#720000
0!
0/
09
1?
#765000
1!
1/
19
0?
#800000
0"
0%
00
01
07
06
1=
1>
05
03
0#
#810000
0!
0/
09
1?
#855000
1!
1/
19
0?
#900000
0!
1"
0/
10
16
09
1?
0=
18
0;
15
13
1#
#945000
1!
1/
19
0?
1:
0<
14
12
1$
#990000
0!
0/
09
1?
