P1/ContadorSimuladoComWhen/simulation/qsim/ContadorSimuladoComWhen.msim.vcd
$comment
	File created using the following command:
		vcd file ContadorSimuladoComWhen.msim.vcd -direction
$end
$date
	Tue Sep 13 20:56:40 2022
$end
$version
	ModelSim Version 10.5b
$end
$timescale
	1ps
$end

$scope module contadorsimuladocomwhen_vhd_vec_tst $end
$var wire 1 ! ENTRADA [3] $end
$var wire 1 " ENTRADA [2] $end
$var wire 1 # ENTRADA [1] $end
$var wire 1 $ ENTRADA [0] $end
$var wire 1 % SAIDA [1] $end
$var wire 1 & SAIDA [0] $end

$scope module i1 $end
$var wire 1 ' gnd $end
$var wire 1 ( vcc $end
$var wire 1 ) unknown $end
$var wire 1 * devoe $end
$var wire 1 + devclrn $end
$var wire 1 , devpor $end
$var wire 1 - ww_devoe $end
$var wire 1 . ww_devclrn $end
$var wire 1 / ww_devpor $end
$var wire 1 0 ww_ENTRADA [3] $end
$var wire 1 1 ww_ENTRADA [2] $end
$var wire 1 2 ww_ENTRADA [1] $end
$var wire 1 3 ww_ENTRADA [0] $end
$var wire 1 4 ww_SAIDA [1] $end
$var wire 1 5 ww_SAIDA [0] $end
$var wire 1 6 \SAIDA[0]~output_o\ $end
$var wire 1 7 \SAIDA[1]~output_o\ $end
$var wire 1 8 \ENTRADA[2]~input_o\ $end
$var wire 1 9 \ENTRADA[0]~input_o\ $end
$var wire 1 : \ENTRADA[1]~input_o\ $end
$var wire 1 ; \ENTRADA[3]~input_o\ $end
$var wire 1 < \LessThan1~0_combout\ $end
$var wire 1 = \SAIDA[1]~2_combout\ $end
$upscope $end
$upscope $end
$enddefinitions $end
#0
$dumpvars
0'
1(
x)
1*
1+
1,
1-
1.
1/
06
07
08
09
0:
0;
0<
1=
0!
0"
0#
0$
0%
0&
00
01
02
03
04
05
$end
#50000
1$
13
19
#100000
0$
1#
03
12
1:
09
#150000
1$
13
19
#200000
0$
0#
1"
03
02
11
18
0:
09
#250000
1$
13
19
#300000
0$
1#
03
12
1:
09
#350000
1$
13
19
1<
0=
z6
z7
z5
z4
z&
z%
#400000
0$
0#
0"
1!
03
02
01
10
1;
08
0:
09
#450000
1$
13
19
#500000
0$
1#
03
12
1:
09
#550000
1$
13
19
1=
16
17
15
14
1&
1%
#600000
0$
0#
1"
03
02
11
18
0:
09
#650000
1$
13
19
#700000
0$
1#
03
12
1:
09
#750000
1$
13
19
#800000
0$
0#
0"
0!
03
02
01
00
0;
08
0:
09
0<
06
07
05
04
0&
0%
#850000
1$
13
19
#900000
0$
1#
03
12
1:
09
#950000
1$
13
19
