P1/Decodificador2Por4EnableComSelect/simulation/qsim/Decodificador2Por4EnableComSelect.msim.vcd
$comment
	File created using the following command:
		vcd file Decodificador2Por4EnableComSelect.msim.vcd -direction
$end
$date
	Wed Sep 14 11:10:49 2022
$end
$version
	ModelSim Version 10.5b
$end
$timescale
	1ps
$end

$scope module decodificador2por4enablecomselect_vhd_vec_tst $end
$var wire 1 ! A [1] $end
$var wire 1 " A [0] $end
$var wire 1 # ENABLE $end
$var wire 1 $ Y [3] $end
$var wire 1 % Y [2] $end
$var wire 1 & Y [1] $end
$var wire 1 ' Y [0] $end

$scope module i1 $end
$var wire 1 ( gnd $end
$var wire 1 ) vcc $end
$var wire 1 * unknown $end
$var wire 1 + devoe $end
$var wire 1 , devclrn $end
$var wire 1 - devpor $end
$var wire 1 . ww_devoe $end
$var wire 1 / ww_devclrn $end
$var wire 1 0 ww_devpor $end
$var wire 1 1 ww_A [1] $end
$var wire 1 2 ww_A [0] $end
$var wire 1 3 ww_ENABLE $end
$var wire 1 4 ww_Y [3] $end
$var wire 1 5 ww_Y [2] $end
$var wire 1 6 ww_Y [1] $end
$var wire 1 7 ww_Y [0] $end
$var wire 1 8 \Y[0]~output_o\ $end
$var wire 1 9 \Y[1]~output_o\ $end
$var wire 1 : \Y[2]~output_o\ $end
$var wire 1 ; \Y[3]~output_o\ $end
$var wire 1 < \A[0]~input_o\ $end
$var wire 1 = \A[1]~input_o\ $end
$var wire 1 > \Mux2~0_combout\ $end
$var wire 1 ? \ENABLE~input_o\ $end
$var wire 1 @ \Mux2~1_combout\ $end
$var wire 1 A \Mux2~2_combout\ $end
$var wire 1 B \Mux0~0_combout\ $end
$upscope $end
$upscope $end
$enddefinitions $end
#0
$dumpvars
0#
0(
1)
x*
1+
1,
1-
1.
1/
10
03
z8
z9
z:
z;
0<
0=
0>
0?
0@
0A
1B
0!
0"
01
02
z4
z5
z6
z7
z$
z%
z&
z'
$end
#50000
1"
12
1<
1A
0B
#100000
0"
1!
02
11
1=
0<
1@
0A
#150000
1"
12
1<
1>
0@
#200000
0"
0!
02
01
0=
0<
0>
1B
#250000
1"
12
1<
1A
0B
#300000
0"
1!
02
11
1=
0<
1@
0A
#350000
1"
12
1<
1>
0@
#400000
0"
0!
02
01
0=
0<
0>
1B
#450000
1"
12
1<
1A
0B
#500000
0"
1!
1#
02
11
13
1?
1=
0<
1@
0A
08
09
1:
0;
07
06
15
04
0:
19
0'
0&
1%
0$
05
16
1&
0%
#550000
1"
12
1<
1>
0@
09
18
06
17
1'
0&
#600000
0"
0!
02
01
0=
0<
0>
1B
1;
08
14
07
0'
1$
#650000
1"
12
1<
1A
0B
0;
1:
04
15
1%
0$
#700000
0"
1!
02
11
1=
0<
1@
0A
0:
19
05
16
1&
0%
#750000
1"
12
1<
1>
0@
09
18
06
17
1'
0&
#800000
0"
0!
02
01
0=
0<
0>
1B
1;
08
14
07
0'
1$
#850000
1"
12
1<
1A
0B
0;
1:
04
15
1%
0$
#900000
0"
1!
02
11
1=
0<
1@
0A
0:
19
05
16
1&
0%
#950000
1"
12
1<
1>
0@
09
18
06
17
1'
0&
