Mux4Por1ComVetores/simulation/qsim/Mux4Por1ComVetores.msim.vcd
$comment
	File created using the following command:
		vcd file Mux4Por1ComVetores.msim.vcd -direction
$end
$date
	Tue Sep 13 19:56:44 2022
$end
$version
	ModelSim Version 10.5b
$end
$timescale
	1ps
$end

$scope module mux4por1comvetores_vhd_vec_tst $end
$var wire 1 ! ENTRADA [0] $end
$var wire 1 " ENTRADA [1] $end
$var wire 1 # ENTRADA [2] $end
$var wire 1 $ ENTRADA [3] $end
$var wire 1 % SAIDA $end
$var wire 1 & SELETOR [0] $end
$var wire 1 ' SELETOR [1] $end

$scope module i1 $end
$var wire 1 ( gnd $end
$var wire 1 ) vcc $end
$var wire 1 * unknown $end
$var wire 1 + devoe $end
$var wire 1 , devclrn $end
$var wire 1 - devpor $end
$var wire 1 . ww_devoe $end
$var wire 1 / ww_devclrn $end
$var wire 1 0 ww_devpor $end
$var wire 1 1 ww_ENTRADA [0] $end
$var wire 1 2 ww_ENTRADA [1] $end
$var wire 1 3 ww_ENTRADA [2] $end
$var wire 1 4 ww_ENTRADA [3] $end
$var wire 1 5 ww_SELETOR [0] $end
$var wire 1 6 ww_SELETOR [1] $end
$var wire 1 7 ww_SAIDA $end
$var wire 1 8 \SAIDA~output_o\ $end
$var wire 1 9 \ENTRADA[1]~input_o\ $end
$var wire 1 : \SELETOR[1]~input_o\ $end
$var wire 1 ; \ENTRADA[2]~input_o\ $end
$var wire 1 < \SELETOR[0]~input_o\ $end
$var wire 1 = \ENTRADA[0]~input_o\ $end
$var wire 1 > \SAIDA~0_combout\ $end
$var wire 1 ? \ENTRADA[3]~input_o\ $end
$var wire 1 @ \SAIDA~1_combout\ $end
$upscope $end
$upscope $end
$enddefinitions $end
#0
$dumpvars
0%
0(
1)
x*
1+
1,
1-
1.
1/
10
07
08
09
0:
0;
0<
0=
0>
0?
0@
0!
0"
0#
0$
0&
0'
01
02
03
04
05
06
$end
#50000
1!
11
1=
1>
1@
18
17
1%
#100000
0!
1"
1&
12
01
15
1<
0=
19
0>
0@
08
07
0%
#150000
1!
1#
13
11
1=
1;
1>
1@
18
17
1%
#200000
0!
0"
0&
1$
1'
14
02
01
16
05
0<
1:
0=
09
1?
0>
0@
08
07
0%
#250000
1!
11
1=
#300000
0!
1"
1&
0#
03
12
01
15
1<
0=
19
0;
1@
1>
18
17
1%
#350000
1!
11
1=
#400000
0!
0"
0&
0$
0'
04
02
01
06
05
0<
0:
0=
09
0?
0>
0@
08
07
0%
#450000
1!
1#
13
11
1=
1;
1>
1@
18
17
1%
#500000
0!
1"
1&
12
01
15
1<
0=
19
#550000
1!
11
1=
#600000
0!
0"
0&
0#
1$
1'
14
03
02
01
16
05
0<
1:
0=
09
0;
1?
0>
0@
08
07
0%
#650000
1!
11
1=
#700000
0!
1"
1&
12
01
15
1<
0=
19
1@
1>
18
17
1%
#750000
1!
1#
13
11
1=
1;
#800000
0!
0"
0&
0$
0'
04
02
01
06
05
0<
0:
0=
09
0?
0>
0@
08
07
0%
#850000
1!
11
1=
1>
1@
18
17
1%
#900000
0!
1"
1&
0#
03
12
01
15
1<
0=
19
0;
0>
0@
08
07
0%
#950000
1!
11
1=
