P1/Mux4Por1When8Bits/simulation/qsim/Mux4Por1When8Bits.msim.vcd
$comment
	File created using the following command:
		vcd file Mux4Por1When8Bits.msim.vcd -direction
$end
$date
	Tue Sep 13 20:38:29 2022
$end
$version
	ModelSim Version 10.5b
$end
$timescale
	1ps
$end

$scope module mux4por1when8bits_vhd_vec_tst $end
$var wire 1 ! SAIDA [7] $end
$var wire 1 " SAIDA [6] $end
$var wire 1 # SAIDA [5] $end
$var wire 1 $ SAIDA [4] $end
$var wire 1 % SAIDA [3] $end
$var wire 1 & SAIDA [2] $end
$var wire 1 ' SAIDA [1] $end
$var wire 1 ( SAIDA [0] $end
$var wire 1 ) SELETOR [1] $end
$var wire 1 * SELETOR [0] $end

$scope module i1 $end
$var wire 1 + gnd $end
$var wire 1 , vcc $end
$var wire 1 - unknown $end
$var wire 1 . devoe $end
$var wire 1 / devclrn $end
$var wire 1 0 devpor $end
$var wire 1 1 ww_devoe $end
$var wire 1 2 ww_devclrn $end
$var wire 1 3 ww_devpor $end
$var wire 1 4 ww_SELETOR [1] $end
$var wire 1 5 ww_SELETOR [0] $end
$var wire 1 6 ww_SAIDA [7] $end
$var wire 1 7 ww_SAIDA [6] $end
$var wire 1 8 ww_SAIDA [5] $end
$var wire 1 9 ww_SAIDA [4] $end
$var wire 1 : ww_SAIDA [3] $end
$var wire 1 ; ww_SAIDA [2] $end
$var wire 1 < ww_SAIDA [1] $end
$var wire 1 = ww_SAIDA [0] $end
$var wire 1 > \SAIDA[0]~output_o\ $end
$var wire 1 ? \SAIDA[1]~output_o\ $end
$var wire 1 @ \SAIDA[2]~output_o\ $end
$var wire 1 A \SAIDA[3]~output_o\ $end
$var wire 1 B \SAIDA[4]~output_o\ $end
$var wire 1 C \SAIDA[5]~output_o\ $end
$var wire 1 D \SAIDA[6]~output_o\ $end
$var wire 1 E \SAIDA[7]~output_o\ $end
$var wire 1 F \SELETOR[0]~input_o\ $end
$var wire 1 G \SELETOR[1]~input_o\ $end
$var wire 1 H \SAIDA[7]~0_combout\ $end
$var wire 1 I \SAIDA[7]~1_combout\ $end
$var wire 1 J \SAIDA[7]~2_combout\ $end
$var wire 1 K \SAIDA[7]~3_combout\ $end
$var wire 1 L \ALT_INV_SAIDA[7]~3_combout\ $end
$upscope $end
$upscope $end
$enddefinitions $end
#0
$dumpvars
0+
1,
x-
1.
1/
10
11
12
13
0>
0?
0@
0A
0B
0C
1D
1E
0F
0G
0H
0I
0J
0K
1L
0)
0*
04
05
16
17
08
09
0:
0;
0<
0=
1!
1"
0#
0$
0%
0&
0'
0(
$end
#50000
1*
15
1F
1J
1K
0L
1B
1C
0D
0E
19
18
07
06
1$
1#
0"
0!
#100000
0*
1)
05
14
1G
0F
1I
0J
0B
0C
1@
1A
09
08
1;
1:
1&
1%
0$
0#
#150000
1*
15
1F
1H
0I
0@
0A
1>
1?
0;
0:
1=
1<
1(
1'
0&
0%
#200000
0*
0)
05
04
0G
0F
0H
0K
1L
0>
0?
1D
1E
0=
0<
17
16
0(
0'
1"
1!
#250000
1*
15
1F
1J
1K
0L
1B
1C
0D
0E
19
18
07
06
1$
1#
0"
0!
#300000
0*
1)
05
14
1G
0F
1I
0J
0B
0C
1@
1A
09
08
1;
1:
1&
1%
0$
0#
#350000
1*
15
1F
1H
0I
0@
0A
1>
1?
0;
0:
1=
1<
1(
1'
0&
0%
#400000
0*
0)
05
04
0G
0F
0H
0K
1L
0>
0?
1D
1E
0=
0<
17
16
0(
0'
1"
1!
#450000
1*
15
1F
1J
1K
0L
1B
1C
0D
0E
19
18
07
06
1$
1#
0"
0!
#500000
0*
1)
05
14
1G
0F
1I
0J
0B
0C
1@
1A
09
08
1;
1:
1&
1%
0$
0#
#550000
1*
15
1F
1H
0I
0@
0A
1>
1?
0;
0:
1=
1<
1(
1'
0&
0%
#600000
0*
0)
05
04
0G
0F
0H
0K
1L
0>
0?
1D
1E
0=
0<
17
16
0(
0'
1"
1!
#650000
1*
15
1F
1J
1K
0L
1B
1C
0D
0E
19
18
07
06
1$
1#
0"
0!
#700000
0*
1)
05
14
1G
0F
1I
0J
0B
0C
1@
1A
09
08
1;
1:
1&
1%
0$
0#
#750000
1*
15
1F
1H
0I
0@
0A
1>
1?
0;
0:
1=
1<
1(
1'
0&
0%
#800000
0*
0)
05
04
0G
0F
0H
0K
1L
0>
0?
1D
1E
0=
0<
17
16
0(
0'
1"
1!
#850000
1*
15
1F
1J
1K
0L
1B
1C
0D
0E
19
18
07
06
1$
1#
0"
0!
#900000
0*
1)
05
14
1G
0F
1I
0J
0B
0C
1@
1A
09
08
1;
1:
1&
1%
0$
0#
#950000
1*
15
1F
1H
0I
0@
0A
1>
1?
0;
0:
1=
1<
1(
1'
0&
0%
