P2/SomadorComparadorIfThenElse/simulation/qsim/SomadorComparadorIfThenElse.msim.vcd
$comment
	File created using the following command:
		vcd file SomadorComparadorIfThenElse.msim.vcd -direction
$end
$date
	Wed Sep 28 08:51:07 2022
$end
$version
	ModelSim Version 10.5b
$end
$timescale
	1ps
$end

$scope module somadorcomparadorifthenelse_vhd_vec_tst $end
$var wire 1 ! a [2] $end
$var wire 1 " a [1] $end
$var wire 1 # a [0] $end
$var wire 1 $ b [2] $end
$var wire 1 % b [1] $end
$var wire 1 & b [0] $end
$var wire 1 ' clk $end
$var wire 1 ( reg_comp $end
$var wire 1 ) reg_sum [3] $end
$var wire 1 * reg_sum [2] $end
$var wire 1 + reg_sum [1] $end
$var wire 1 , reg_sum [0] $end

$scope module i1 $end
$var wire 1 - gnd $end
$var wire 1 . vcc $end
$var wire 1 / unknown $end
$var wire 1 0 devoe $end
$var wire 1 1 devclrn $end
$var wire 1 2 devpor $end
$var wire 1 3 ww_devoe $end
$var wire 1 4 ww_devclrn $end
$var wire 1 5 ww_devpor $end
$var wire 1 6 ww_a [2] $end
$var wire 1 7 ww_a [1] $end
$var wire 1 8 ww_a [0] $end
$var wire 1 9 ww_b [2] $end
$var wire 1 : ww_b [1] $end
$var wire 1 ; ww_b [0] $end
$var wire 1 < ww_clk $end
$var wire 1 = ww_reg_comp $end
$var wire 1 > ww_reg_sum [3] $end
$var wire 1 ? ww_reg_sum [2] $end
$var wire 1 @ ww_reg_sum [1] $end
$var wire 1 A ww_reg_sum [0] $end
$var wire 1 B \reg_comp~output_o\ $end
$var wire 1 C \reg_sum[0]~output_o\ $end
$var wire 1 D \reg_sum[1]~output_o\ $end
$var wire 1 E \reg_sum[2]~output_o\ $end
$var wire 1 F \reg_sum[3]~output_o\ $end
$var wire 1 G \clk~input_o\ $end
$var wire 1 H \a[2]~input_o\ $end
$var wire 1 I \b[2]~input_o\ $end
$var wire 1 J \a[1]~input_o\ $end
$var wire 1 K \b[1]~input_o\ $end
$var wire 1 L \a[0]~input_o\ $end
$var wire 1 M \b[0]~input_o\ $end
$var wire 1 N \LessThan0~0_combout\ $end
$var wire 1 O \reg_comp~reg0_q\ $end
$var wire 1 P \Add0~0_combout\ $end
$var wire 1 Q \reg_sum[0]~reg0_q\ $end
$var wire 1 R \Add0~1_combout\ $end
$var wire 1 S \reg_sum[1]~reg0_q\ $end
$var wire 1 T \Add0~2_combout\ $end
$var wire 1 U \reg_sum[2]~reg0_q\ $end
$var wire 1 V \Add0~3_combout\ $end
$var wire 1 W \reg_sum[3]~reg0_q\ $end
$var wire 1 X \ALT_INV_a[2]~input_o\ $end
$var wire 1 Y \ALT_INV_b[2]~input_o\ $end
$var wire 1 Z \ALT_INV_a[1]~input_o\ $end
$var wire 1 [ \ALT_INV_a[0]~input_o\ $end
$var wire 1 \ \ALT_INV_b[1]~input_o\ $end
$var wire 1 ] \ALT_INV_b[0]~input_o\ $end
$upscope $end
$upscope $end
$enddefinitions $end
#0
$dumpvars
0'
0(
0-
1.
x/
10
11
12
13
14
15
0<
0=
0B
0C
0D
0E
0F
0G
1H
0I
0J
0K
1L
0M
1N
0O
1P
0Q
0R
0S
1T
0U
0V
0W
0X
1Y
1Z
0[
1\
1]
1!
0"
1#
0$
0%
0&
0)
0*
0+
0,
16
07
18
09
0:
0;
0>
0?
0@
0A
$end
#25000
1'
1<
1G
1O
1Q
1U
1E
1C
1B
1?
1A
1=
1,
1*
1(
#50000
0'
1&
0<
1;
1M
0G
0]
0P
1R
#75000
1'
1<
1G
0Q
1S
1D
0C
1@
0A
0,
1+
#100000
0'
0&
1%
0<
0;
1:
1K
0M
0G
1]
0\
1P
#125000
1'
1<
1G
1Q
1C
1A
1,
#150000
0'
1&
0<
1;
1M
0G
0]
0P
0R
0T
1V
#175000
1'
1<
1G
0Q
0S
0U
1W
1F
0E
0D
0C
1>
0?
0@
0A
0,
0+
0*
1)
#200000
0'
0&
0%
1$
0<
0;
0:
19
1I
0K
0M
0G
1]
1\
0Y
1P
#225000
1'
1<
1G
1Q
1C
1A
1,
#250000
0'
1&
0<
1;
1M
0G
0]
0N
0P
1R
#275000
1'
1<
1G
0O
0Q
1S
1D
0C
0B
1@
0A
0=
0,
1+
0(
#300000
0'
0&
1%
0<
0;
1:
1K
0M
0G
1]
0\
1P
#325000
1'
1<
1G
1Q
1C
1A
1,
#350000
0'
1&
0<
1;
1M
0G
0]
0P
0R
1T
#375000
1'
1<
1G
0Q
0S
1U
1E
0D
0C
1?
0@
0A
0,
0+
1*
#400000
0'
0&
0%
0$
0<
0;
0:
09
0I
0K
0M
0G
1]
1\
1Y
1N
1P
0V
#425000
1'
1<
1G
1O
1Q
0W
0F
1C
1B
0>
1A
1=
1,
0)
1(
#450000
0'
1&
0<
1;
1M
0G
0]
0P
1R
#475000
1'
1<
1G
0Q
1S
1D
0C
1@
0A
0,
1+
#500000
0'
0&
1%
0<
0;
1:
1K
0M
0G
1]
0\
1P
#525000
1'
1<
1G
1Q
1C
1A
1,
#550000
0'
1&
0<
1;
1M
0G
0]
0P
0R
0T
1V
#575000
1'
1<
1G
0Q
0S
0U
1W
1F
0E
0D
0C
1>
0?
0@
0A
0,
0+
0*
1)
#600000
0'
0&
0%
1$
0<
0;
0:
19
1I
0K
0M
0G
1]
1\
0Y
1P
#625000
1'
1<
1G
1Q
1C
1A
1,
#650000
0'
1&
0<
1;
1M
0G
0]
0N
0P
1R
#675000
1'
1<
1G
0O
0Q
1S
1D
0C
0B
1@
0A
0=
0,
1+
0(
#700000
0'
0&
1%
0<
0;
1:
1K
0M
0G
1]
0\
1P
#725000
1'
1<
1G
1Q
1C
1A
1,
#750000
0'
1&
0<
1;
1M
0G
0]
0P
0R
1T
#775000
1'
1<
1G
0Q
0S
1U
1E
0D
0C
1?
0@
0A
0,
0+
1*
#800000
0'
0&
0%
0$
0<
0;
0:
09
0I
0K
0M
0G
1]
1\
1Y
1N
1P
0V
#825000
1'
1<
1G
1O
1Q
0W
0F
1C
1B
0>
1A
1=
1,
0)
1(
#850000
0'
1&
0<
1;
1M
0G
0]
0P
1R
#875000
1'
1<
1G
0Q
1S
1D
0C
1@
0A
0,
1+
#900000
0'
0&
1%
0<
0;
1:
1K
0M
0G
1]
0\
1P
#925000
1'
1<
1G
1Q
1C
1A
1,
#950000
0'
1&
0<
1;
1M
0G
0]
0P
0R
0T
1V
#975000
1'
1<
1G
0Q
0S
0U
1W
1F
0E
0D
0C
1>
0?
0@
0A
0,
0+
0*
1)
