P3/FlipFlopsIndependenteComForLoop/simulation/qsim/FlipFlopsIndependenteComForLoop.msim.vcd
$comment
	File created using the following command:
		vcd file FlipFlopsIndependenteComForLoop.msim.vcd -direction
$end
$date
	Wed Sep 28 15:32:33 2022
$end
$version
	ModelSim Version 10.5b
$end
$timescale
	1ps
$end

$scope module flipflopsindependentecomforloop_vhd_vec_tst $end
$var wire 1 ! clk [2] $end
$var wire 1 " clk [1] $end
$var wire 1 # clk [0] $end
$var wire 1 $ d [2] $end
$var wire 1 % d [1] $end
$var wire 1 & d [0] $end
$var wire 1 ' q [2] $end
$var wire 1 ( q [1] $end
$var wire 1 ) q [0] $end
$var wire 1 * rst [2] $end
$var wire 1 + rst [1] $end
$var wire 1 , rst [0] $end

$scope module i1 $end
$var wire 1 - gnd $end
$var wire 1 . vcc $end
$var wire 1 / unknown $end
$var wire 1 0 devoe $end
$var wire 1 1 devclrn $end
$var wire 1 2 devpor $end
$var wire 1 3 ww_devoe $end
$var wire 1 4 ww_devclrn $end
$var wire 1 5 ww_devpor $end
$var wire 1 6 ww_d [2] $end
$var wire 1 7 ww_d [1] $end
$var wire 1 8 ww_d [0] $end
$var wire 1 9 ww_clk [2] $end
$var wire 1 : ww_clk [1] $end
$var wire 1 ; ww_clk [0] $end
$var wire 1 < ww_rst [2] $end
$var wire 1 = ww_rst [1] $end
$var wire 1 > ww_rst [0] $end
$var wire 1 ? ww_q [2] $end
$var wire 1 @ ww_q [1] $end
$var wire 1 A ww_q [0] $end
$var wire 1 B \q[0]~output_o\ $end
$var wire 1 C \q[1]~output_o\ $end
$var wire 1 D \q[2]~output_o\ $end
$var wire 1 E \clk[0]~input_o\ $end
$var wire 1 F \d[0]~input_o\ $end
$var wire 1 G \rst[0]~input_o\ $end
$var wire 1 H \q[0]~reg0_q\ $end
$var wire 1 I \clk[1]~input_o\ $end
$var wire 1 J \d[1]~input_o\ $end
$var wire 1 K \rst[1]~input_o\ $end
$var wire 1 L \q[1]~reg0_q\ $end
$var wire 1 M \clk[2]~input_o\ $end
$var wire 1 N \d[2]~input_o\ $end
$var wire 1 O \rst[2]~input_o\ $end
$var wire 1 P \q[2]~reg0_q\ $end
$var wire 1 Q \ALT_INV_rst[2]~input_o\ $end
$var wire 1 R \ALT_INV_rst[1]~input_o\ $end
$var wire 1 S \ALT_INV_rst[0]~input_o\ $end
$upscope $end
$upscope $end
$enddefinitions $end
#0
$dumpvars
0-
1.
x/
10
11
12
13
14
15
0B
0C
0D
0E
0F
0G
0H
0I
0J
0K
0L
0M
0N
0O
0P
1Q
1R
1S
0!
0"
0#
0$
0%
0&
0*
0+
0,
06
07
08
09
0:
0;
0<
0=
0>
0?
0@
0A
0'
0(
0)
$end
#22000
1#
1;
1E
#44000
0#
1"
0;
1:
1I
0E
#50000
1&
18
1F
#66000
1#
1;
1E
1H
1B
1A
1)
#88000
0#
0"
1!
0;
0:
19
1M
0I
0E
#100000
0&
1%
08
17
1J
0F
#110000
1#
1;
1E
0H
0B
0A
0)
#132000
0#
1"
0;
1:
1I
0E
1L
1C
1@
1(
#150000
1&
18
1F
#154000
1#
1;
1E
1H
1B
1A
1)
#176000
0#
0"
0!
0;
0:
09
0M
0I
0E
#198000
1#
1;
1E
#200000
0&
0%
1$
08
07
16
1N
0J
0F
#220000
0#
1"
0;
1:
1I
0E
0L
0C
0@
0(
#242000
1#
1;
1E
0H
0B
0A
0)
#250000
1&
18
1F
#264000
0#
0"
1!
0;
0:
19
1M
0I
0E
1P
1D
1?
1'
#286000
1#
1;
1E
1H
1B
1A
1)
#300000
0&
1%
08
17
1J
0F
#308000
0#
1"
0;
1:
1I
0E
1L
1C
1@
1(
#330000
1#
1;
1E
0H
0B
0A
0)
#350000
1&
18
1F
#352000
0#
0"
0!
0;
0:
09
0M
0I
0E
#374000
1#
1;
1E
1H
1B
1A
1)
#396000
0#
1"
0;
1:
1I
0E
#400000
0&
0%
0$
08
07
06
0N
0J
0F
#418000
1#
1;
1E
0H
0B
0A
0)
#440000
0#
0"
1!
0;
0:
19
1M
0I
0E
0P
0D
0?
0'
#450000
1&
18
1F
#462000
1#
1;
1E
1H
1B
1A
1)
#484000
0#
1"
0;
1:
1I
0E
0L
0C
0@
0(
#500000
0&
1%
08
17
1J
0F
#506000
1#
1;
1E
0H
0B
0A
0)
#528000
0#
0"
0!
0;
0:
09
0M
0I
0E
#550000
1#
1&
1;
18
1F
1E
#572000
0#
1"
0;
1:
1I
0E
1L
1C
1@
1(
#594000
1#
1;
1E
1H
1B
1A
1)
#600000
0&
0%
1$
08
07
16
1N
0J
0F
#616000
0#
0"
1!
0;
0:
19
1M
0I
0E
1P
1D
1?
1'
#638000
1#
1;
1E
0H
0B
0A
0)
#650000
1&
18
1F
#660000
0#
1"
0;
1:
1I
0E
0L
0C
0@
0(
#682000
1#
1;
1E
1H
1B
1A
1)
#700000
0&
1%
08
17
1J
0F
#704000
0#
0"
0!
0;
0:
09
0M
0I
0E
#726000
1#
1;
1E
0H
0B
0A
0)
#740000
1*
1+
1,
1>
1=
1<
1O
1K
1G
0S
0R
0Q
0P
0D
0?
0'
#748000
0#
1"
0;
1:
1I
0E
#750000
1&
18
1F
#770000
1#
1;
1E
#792000
0#
0"
1!
0;
0:
19
1M
0I
0E
#800000
0&
0%
0$
08
07
06
0N
0J
0F
#814000
1#
1;
1E
#836000
0#
1"
0;
1:
1I
0E
#850000
1&
18
1F
#858000
1#
1;
1E
#880000
0#
0"
0!
0;
0:
09
0M
0I
0E
#900000
0&
1%
08
17
1J
0F
#902000
1#
1;
1E
#924000
0#
1"
0;
1:
1I
0E
#946000
1#
1;
1E
#950000
1&
18
1F
#968000
0#
0"
1!
0;
0:
19
1M
0I
0E
#990000
1#
1;
1E
