P1/port_AND/simulation/qsim/LogicAND.msim.vcd
$comment
	File created using the following command:
		vcd file LogicAND.msim.vcd -direction
$end
$date
	Tue Sep 13 16:30:18 2022
$end
$version
	ModelSim Version 10.5b
$end
$timescale
	1ps
$end

$scope module logicand_vhd_vec_tst $end
$var wire 1 ! in1 $end
$var wire 1 " in2 $end
$var wire 1 # out1 $end

$scope module i1 $end
$var wire 1 $ gnd $end
$var wire 1 % vcc $end
$var wire 1 & unknown $end
$var wire 1 ' devoe $end
$var wire 1 ( devclrn $end
$var wire 1 ) devpor $end
$var wire 1 * ww_devoe $end
$var wire 1 + ww_devclrn $end
$var wire 1 , ww_devpor $end
$var wire 1 - ww_in1 $end
$var wire 1 . ww_in2 $end
$var wire 1 / ww_out1 $end
$var wire 1 0 \out1~output_o\ $end
$var wire 1 1 \in1~input_o\ $end
$var wire 1 2 \in2~input_o\ $end
$var wire 1 3 \out1~0_combout\ $end
$upscope $end
$upscope $end
$enddefinitions $end
#0
$dumpvars
0!
1"
0#
0$
1%
x&
1'
1(
1)
1*
1+
1,
0-
1.
0/
00
01
12
03
$end
#50000
1!
1-
11
13
10
1/
1#
#100000
0!
0"
0-
0.
02
01
03
00
0/
0#
#150000
1!
1-
11
#200000
0!
1"
0-
1.
12
01
#250000
1!
1-
11
13
10
1/
1#
#300000
0!
0"
0-
0.
02
01
03
00
0/
0#
#350000
1!
1-
11
#400000
0!
1"
0-
1.
12
01
#450000
1!
1-
11
13
10
1/
1#
#500000
0!
0"
0-
0.
02
01
03
00
0/
0#
#550000
1!
1-
11
#600000
0!
1"
0-
1.
12
01
#650000
1!
1-
11
13
10
1/
1#
#700000
0!
0"
0-
0.
02
01
03
00
0/
0#
#750000
1!
1-
11
#800000
0!
1"
0-
1.
12
01
#850000
1!
1-
11
13
10
1/
1#
#900000
0!
0"
0-
0.
02
01
03
00
0/
0#
#950000
1!
1-
11
