P2/CircuitoComGenerateCondicional/simulation/qsim/CircuitoComGenerateCondicional.msim.vcd
$comment
	File created using the following command:
		vcd file CircuitoComGenerateCondicional.msim.vcd -direction
$end
$date
	Tue Sep 27 16:53:58 2022
$end
$version
	ModelSim Version 10.5b
$end
$timescale
	1ps
$end

$scope module circuitocomgeneratecondicional_vhd_vec_tst $end
$var wire 1 ! entrada [3] $end
$var wire 1 " entrada [2] $end
$var wire 1 # entrada [1] $end
$var wire 1 $ entrada [0] $end
$var wire 1 % saida [3] $end
$var wire 1 & saida [2] $end
$var wire 1 ' saida [1] $end
$var wire 1 ( saida [0] $end

$scope module i1 $end
$var wire 1 ) gnd $end
$var wire 1 * vcc $end
$var wire 1 + unknown $end
$var wire 1 , devoe $end
$var wire 1 - devclrn $end
$var wire 1 . devpor $end
$var wire 1 / ww_devoe $end
$var wire 1 0 ww_devclrn $end
$var wire 1 1 ww_devpor $end
$var wire 1 2 ww_entrada [3] $end
$var wire 1 3 ww_entrada [2] $end
$var wire 1 4 ww_entrada [1] $end
$var wire 1 5 ww_entrada [0] $end
$var wire 1 6 ww_saida [3] $end
$var wire 1 7 ww_saida [2] $end
$var wire 1 8 ww_saida [1] $end
$var wire 1 9 ww_saida [0] $end
$var wire 1 : \entrada[3]~input_o\ $end
$var wire 1 ; \saida[0]~output_o\ $end
$var wire 1 < \saida[1]~output_o\ $end
$var wire 1 = \saida[2]~output_o\ $end
$var wire 1 > \saida[3]~output_o\ $end
$var wire 1 ? \entrada[0]~input_o\ $end
$var wire 1 @ \entrada[1]~input_o\ $end
$var wire 1 A \entrada[2]~input_o\ $end
$upscope $end
$upscope $end
$enddefinitions $end
#0
$dumpvars
0)
1*
x+
1,
1-
1.
1/
10
11
0:
0;
0<
0=
0>
0?
0@
0A
0!
0"
0#
0$
02
03
04
05
06
07
08
09
0%
0&
0'
0(
$end
#50000
1$
15
1?
1;
19
1(
#100000
0$
1#
05
14
1@
0?
0;
1<
09
18
0(
1'
#150000
1$
15
1?
1;
19
1(
#200000
0$
0#
1"
05
04
13
1A
0@
0?
0;
0<
1=
09
08
17
0(
0'
1&
#250000
1$
15
1?
1;
19
1(
#300000
0$
1#
05
14
1@
0?
0;
1<
09
18
0(
1'
#350000
1$
15
1?
1;
19
1(
#400000
0$
0#
0"
1!
05
04
03
12
1:
0A
0@
0?
0;
0<
0=
09
08
07
0(
0'
0&
#450000
1$
15
1?
1;
19
1(
#500000
0$
1#
05
14
1@
0?
0;
1<
09
18
0(
1'
#550000
1$
15
1?
1;
19
1(
#600000
0$
0#
1"
05
04
13
1A
0@
0?
0;
0<
1=
09
08
17
0(
0'
1&
#650000
1$
15
1?
1;
19
1(
#700000
0$
1#
05
14
1@
0?
0;
1<
09
18
0(
1'
#750000
1$
15
1?
1;
19
1(
#800000
0$
0#
0"
0!
05
04
03
02
0:
0A
0@
0?
0;
0<
0=
09
08
07
0(
0'
0&
#850000
1$
15
1?
1;
19
1(
#900000
0$
1#
05
14
1@
0?
0;
1<
09
18
0(
1'
#950000
1$
15
1?
1;
19
1(
