CodificadorDePrioridadeWithSelectWhen/simulation/qsim/CodificadorDePrioridadeWithSelectWhen.msim.vcd
$comment
	File created using the following command:
		vcd file CodificadorDePrioridadeWithSelectWhen.msim.vcd -direction
$end
$date
	Wed Sep 14 11:58:26 2022
$end
$version
	ModelSim Version 10.5b
$end
$timescale
	1ps
$end

$scope module codificadordeprioridadewithselectwhen_vhd_vec_tst $end
$var wire 1 ! C [1] $end
$var wire 1 " C [0] $end
$var wire 1 # P [2] $end
$var wire 1 $ P [1] $end
$var wire 1 % P [0] $end

$scope module i1 $end
$var wire 1 & gnd $end
$var wire 1 ' vcc $end
$var wire 1 ( unknown $end
$var wire 1 ) devoe $end
$var wire 1 * devclrn $end
$var wire 1 + devpor $end
$var wire 1 , ww_devoe $end
$var wire 1 - ww_devclrn $end
$var wire 1 . ww_devpor $end
$var wire 1 / ww_P [2] $end
$var wire 1 0 ww_P [1] $end
$var wire 1 1 ww_P [0] $end
$var wire 1 2 ww_C [1] $end
$var wire 1 3 ww_C [0] $end
$var wire 1 4 \C[0]~output_o\ $end
$var wire 1 5 \C[1]~output_o\ $end
$var wire 1 6 \P[2]~input_o\ $end
$var wire 1 7 \P[0]~input_o\ $end
$var wire 1 8 \P[1]~input_o\ $end
$var wire 1 9 \Mux1~0_combout\ $end
$var wire 1 : \Mux0~0_combout\ $end
$upscope $end
$upscope $end
$enddefinitions $end
#0
$dumpvars
0&
1'
x(
1)
1*
1+
1,
1-
1.
04
05
06
07
08
09
0:
0#
0$
0%
0/
00
01
02
03
0!
0"
$end
#50000
1%
11
17
19
14
13
1"
#100000
0%
1$
01
10
18
07
09
1:
15
04
12
03
0"
1!
#150000
1%
11
17
#200000
0%
0$
1#
01
00
1/
16
08
07
19
14
13
1"
#250000
1%
11
17
#300000
0%
1$
01
10
18
07
#350000
1%
11
17
#400000
0%
0$
0#
01
00
0/
06
08
07
09
0:
05
04
02
03
0"
0!
#450000
1%
11
17
19
14
13
1"
#500000
0%
1$
01
10
18
07
09
1:
15
04
12
03
0"
1!
#550000
1%
11
17
#600000
0%
0$
1#
01
00
1/
16
08
07
19
14
13
1"
#650000
1%
11
17
#700000
0%
1$
01
10
18
07
#750000
1%
11
17
#800000
0%
0$
0#
01
00
0/
06
08
07
09
0:
05
04
02
03
0"
0!
#850000
1%
11
17
19
14
13
1"
#900000
0%
1$
01
10
18
07
09
1:
15
04
12
03
0"
1!
#950000
1%
11
17
