P2/FlipflopSincronoComGuarded/simulation/qsim/FlipflopSincronoComGuarded.msim.vcd
$comment
	File created using the following command:
		vcd file FlipflopSincronoComGuarded.msim.vcd -direction
$end
$date
	Tue Sep 27 19:05:50 2022
$end
$version
	ModelSim Version 10.5b
$end
$timescale
	1ps
$end

$scope module flipflopsincronocomguarded_vhd_vec_tst $end
$var wire 1 ! clk $end
$var wire 1 " d $end
$var wire 1 # q_assinc $end
$var wire 1 $ q_guarded_sinc $end
$var wire 1 % rst $end

$scope module i1 $end
$var wire 1 & gnd $end
$var wire 1 ' vcc $end
$var wire 1 ( unknown $end
$var wire 1 ) devoe $end
$var wire 1 * devclrn $end
$var wire 1 + devpor $end
$var wire 1 , ww_devoe $end
$var wire 1 - ww_devclrn $end
$var wire 1 . ww_devpor $end
$var wire 1 / ww_clk $end
$var wire 1 0 ww_d $end
$var wire 1 1 ww_rst $end
$var wire 1 2 ww_q_guarded_sinc $end
$var wire 1 3 ww_q_assinc $end
$var wire 1 4 \q_guarded_sinc~output_o\ $end
$var wire 1 5 \q_assinc~output_o\ $end
$var wire 1 6 \clk~input_o\ $end
$var wire 1 7 \d~input_o\ $end
$var wire 1 8 \rst~input_o\ $end
$var wire 1 9 \q_guarded_sinc~0_combout\ $end
$var wire 1 : \q_guarded_sinc~reg0_q\ $end
$var wire 1 ; \ALT_INV_d~input_o\ $end
$var wire 1 < \ALT_INV_rst~input_o\ $end
$upscope $end
$upscope $end
$enddefinitions $end
#0
$dumpvars
0!
0"
0#
0$
0%
0&
1'
x(
1)
1*
1+
1,
1-
1.
0/
00
01
02
03
04
05
06
07
08
09
0:
1;
1<
$end
#45000
1!
1/
16
#90000
0!
0/
06
#100000
1"
10
17
0;
19
15
13
1#
#135000
1!
1/
16
1:
14
12
1$
#180000
0!
0/
06
#200000
0"
00
07
1;
09
05
03
0#
#225000
1!
1/
16
0:
04
02
0$
#270000
0!
0/
06
#300000
1"
10
17
0;
19
15
13
1#
#315000
1!
1/
16
1:
14
12
1$
#360000
0!
0/
06
#400000
0"
00
07
1;
09
05
03
0#
#405000
1!
1/
16
0:
04
02
0$
#440000
1%
11
18
0<
#450000
0!
0/
06
#495000
1!
1/
16
#500000
1"
10
17
0;
15
13
1#
#540000
0!
0/
06
#585000
1!
1/
16
#600000
0"
00
07
1;
05
03
0#
#630000
0!
0/
06
#675000
1!
1/
16
#700000
1"
10
17
0;
15
13
1#
#720000
0!
0/
06
#765000
1!
1/
16
#800000
0"
00
07
1;
05
03
0#
#810000
0!
0/
06
#855000
1!
1/
16
#880000
0%
01
08
1<
#900000
0!
1"
0/
10
17
06
0;
19
15
13
1#
#945000
1!
1/
16
1:
14
12
1$
#990000
0!
0/
06
